assets/Datasets/SDS00002.CSV

Record Length,11250,,Source,CH1
Sample Interval,CH1:0.0000040000000,,Second,Volt
Vertical Units,CH1:V,,-0.02249999844,3.68000,
Vertical Scale,CH1:1.00,,-0.02249600000,3.68000,
Vertical Offset,CH1:-1.08000,,-0.02249200156,3.68000,
Horizontal Units,s,,-0.02248800000,3.68000,
Horizontal Scale,0.0025000000,,-0.02248400000,3.56000,
Model Number,SDS105X,,-0.02248000000,3.68000,
Serial Number,NDS10PA1162593,,-0.02247600000,3.72000,
Software Version,5.06.02.21,,-0.02247200000,3.68000,
,,,-0.02246800000,3.64000,
,,,-0.02246400000,3.76000,
,,,-0.02246000000,3.68000,
,,,-0.02245600000,3.72000,
,,,-0.02245200000,3.68000,
,,,-0.02244800000,3.72000,
,,,-0.02244400000,3.64000,
,,,-0.02244000000,3.68000,
,,,-0.02243600000,3.68000,
,,,-0.02243200000,3.68000,
,,,-0.02242800000,3.72000,
,,,-0.02242400000,3.68000,
,,,-0.02242000000,3.68000,
,,,-0.02241600000,3.68000,
,,,-0.02241200000,3.68000,
,,,-0.02240800000,3.68000,
,,,-0.02240400000,3.64000,
,,,-0.02239999844,3.68000,
,,,-0.02239600000,3.72000,
,,,-0.02239199844,3.72000,
,,,-0.02238800000,3.68000,
,,,-0.02238399844,3.68000,
,,,-0.02238000000,3.68000,
,,,-0.02237599844,3.72000,
,,,-0.02237200000,3.68000,
,,,-0.02236800156,3.68000,
,,,-0.02236400000,3.72000,
,,,-0.02236000000,3.68000,
,,,-0.02235600000,3.52000,
,,,-0.02235200000,3.68000,
,,,-0.02234800000,3.72000,
,,,-0.02234400000,3.68000,
,,,-0.02234000000,3.68000,
,,,-0.02233600000,3.80000,
,,,-0.02233200000,3.68000,
,,,-0.02232800000,3.68000,
,,,-0.02232400000,3.68000,
,,,-0.02232000000,3.68000,
,,,-0.02231600000,3.76000,
,,,-0.02231200000,3.68000,
,,,-0.02230800000,3.72000,
,,,-0.02230400000,3.72000,
,,,-0.02230000000,3.68000,
,,,-0.02229600000,3.68000,
,,,-0.02229200000,3.68000,
,,,-0.02228800000,3.64000,
,,,-0.02228400000,3.68000,
,,,-0.02228000000,3.68000,
,,,-0.02227599844,3.64000,
,,,-0.02227200000,3.68000,
,,,-0.02226799844,3.68000,
,,,-0.02226400000,3.64000,
,,,-0.02225999844,3.68000,
,,,-0.02225600000,3.64000,
,,,-0.02225200156,3.68000,
,,,-0.02224800000,3.68000,
,,,-0.02224400156,3.68000,
,,,-0.02224000000,3.72000,
,,,-0.02223600000,3.72000,
,,,-0.02223200000,3.68000,
,,,-0.02222800000,3.56000,
,,,-0.02222400000,3.72000,
,,,-0.02222000000,3.68000,
,,,-0.02221600000,3.72000,
,,,-0.02221200000,3.72000,
,,,-0.02220800000,3.72000,
,,,-0.02220400000,3.64000,
,,,-0.02220000000,3.64000,
,,,-0.02219600000,3.68000,
,,,-0.02219200000,3.72000,
,,,-0.02218800000,3.64000,
,,,-0.02218400000,3.68000,
,,,-0.02218000000,3.68000,
,,,-0.02217600000,3.68000,
,,,-0.02217200000,3.72000,
,,,-0.02216800000,3.80000,
,,,-0.02216400000,3.72000,
,,,-0.02216000000,3.72000,
,,,-0.02215600000,3.72000,
,,,-0.02215199844,3.68000,
,,,-0.02214800000,3.68000,
,,,-0.02214399844,3.72000,
,,,-0.02214000000,3.68000,
,,,-0.02213599844,3.68000,
,,,-0.02213200000,3.68000,
,,,-0.02212800156,3.64000,
,,,-0.02212400000,3.72000,
,,,-0.02212000156,3.68000,
,,,-0.02211600000,3.68000,
,,,-0.02211200000,3.68000,
,,,-0.02210800000,3.64000,
,,,-0.02210400000,3.68000,
,,,-0.02210000000,3.72000,
,,,-0.02209600000,3.72000,
,,,-0.02209200000,3.68000,
,,,-0.02208800000,3.72000,
,,,-0.02208400000,3.68000,
,,,-0.02208000000,3.56000,
,,,-0.02207600000,3.72000,
,,,-0.02207200000,3.72000,
,,,-0.02206800000,3.72000,
,,,-0.02206400000,3.68000,
,,,-0.02206000000,3.60000,
,,,-0.02205600000,3.68000,
,,,-0.02205200000,3.68000,
,,,-0.02204800000,3.72000,
,,,-0.02204400000,3.68000,
,,,-0.02204000000,3.64000,
,,,-0.02203600000,3.68000,
,,,-0.02203200000,3.64000,
,,,-0.02202799844,3.64000,
,,,-0.02202400000,3.68000,
,,,-0.02201999844,3.72000,
,,,-0.02201600000,3.68000,
,,,-0.02201199844,3.68000,
,,,-0.02200800000,3.68000,
,,,-0.02200400156,3.72000,
,,,-0.02200000000,3.68000,
,,,-0.02199600156,3.68000,
,,,-0.02199200000,3.68000,
,,,-0.02198800000,3.68000,
,,,-0.02198400000,3.64000,
,,,-0.02198000000,3.64000,
,,,-0.02197600000,3.68000,
,,,-0.02197200000,3.72000,
,,,-0.02196800000,3.68000,
,,,-0.02196400000,3.68000,
,,,-0.02196000000,3.64000,
,,,-0.02195600000,3.68000,
,,,-0.02195200000,3.68000,
,,,-0.02194800000,3.68000,
,,,-0.02194400000,3.72000,
,,,-0.02194000000,3.68000,
,,,-0.02193600000,3.72000,
,,,-0.02193200000,3.68000,
,,,-0.02192800000,3.68000,
,,,-0.02192400000,3.68000,
,,,-0.02192000000,3.68000,
,,,-0.02191600000,3.68000,
,,,-0.02191199844,3.64000,
,,,-0.02190800000,3.68000,
,,,-0.02190399844,3.68000,
,,,-0.02190000000,3.68000,
,,,-0.02189599844,3.68000,
,,,-0.02189200000,3.68000,
,,,-0.02188799844,3.68000,
,,,-0.02188400000,3.68000,
,,,-0.02188000156,3.68000,
,,,-0.02187600000,3.68000,
,,,-0.02187200000,3.72000,
,,,-0.02186800000,3.68000,
,,,-0.02186400000,3.68000,
,,,-0.02186000000,3.72000,
,,,-0.02185600000,3.68000,
,,,-0.02185200000,3.72000,
,,,-0.02184800000,3.68000,
,,,-0.02184400000,3.68000,
,,,-0.02184000000,3.68000,
,,,-0.02183600000,3.68000,
,,,-0.02183200000,3.64000,
,,,-0.02182800000,3.72000,
,,,-0.02182400000,3.80000,
,,,-0.02182000000,3.68000,
,,,-0.02181600000,3.68000,
,,,-0.02181200000,3.64000,
,,,-0.02180800000,3.68000,
,,,-0.02180400000,3.64000,
,,,-0.02180000000,3.72000,
,,,-0.02179600000,3.68000,
,,,-0.02179200000,3.68000,
,,,-0.02178799844,3.68000,
,,,-0.02178400000,3.80000,
,,,-0.02177999844,3.68000,
,,,-0.02177600000,3.68000,
,,,-0.02177199844,3.72000,
,,,-0.02176800000,3.68000,
,,,-0.02176399844,3.64000,
,,,-0.02176000000,3.68000,
,,,-0.02175600156,3.72000,
,,,-0.02175200000,3.68000,
,,,-0.02174800000,3.68000,
,,,-0.02174400000,3.72000,
,,,-0.02174000000,3.68000,
,,,-0.02173600000,3.68000,
,,,-0.02173200000,3.68000,
,,,-0.02172800000,3.72000,
,,,-0.02172400000,3.68000,
,,,-0.02172000000,3.68000,
,,,-0.02171600000,3.72000,
,,,-0.02171200000,3.72000,
,,,-0.02170800000,3.72000,
,,,-0.02170400000,3.76000,
,,,-0.02170000000,3.68000,
,,,-0.02169600000,3.68000,
,,,-0.02169200000,3.68000,
,,,-0.02168800000,3.68000,
,,,-0.02168400000,3.72000,
,,,-0.02168000000,3.68000,
,,,-0.02167600000,3.64000,
,,,-0.02167200000,3.72000,
,,,-0.02166800000,3.68000,
,,,-0.02166399844,3.68000,
,,,-0.02166000000,3.64000,
,,,-0.02165599844,3.84000,
,,,-0.02165200000,3.72000,
,,,-0.02164799844,3.68000,
,,,-0.02164400000,3.72000,
,,,-0.02164000156,3.68000,
,,,-0.02163600000,3.80000,
,,,-0.02163200156,3.68000,
,,,-0.02162800000,3.68000,
,,,-0.02162400000,3.64000,
,,,-0.02162000000,3.72000,
,,,-0.02161600000,3.68000,
,,,-0.02161200000,3.68000,
,,,-0.02160800000,3.68000,
,,,-0.02160400000,3.72000,
,,,-0.02160000000,3.68000,
,,,-0.02159600000,3.64000,
,,,-0.02159200000,3.68000,
,,,-0.02158800000,3.68000,
,,,-0.02158400000,3.68000,
,,,-0.02158000000,3.68000,
,,,-0.02157600000,3.68000,
,,,-0.02157200000,3.68000,
,,,-0.02156800000,3.68000,
,,,-0.02156400000,3.72000,
,,,-0.02156000000,3.68000,
,,,-0.02155600000,3.72000,
,,,-0.02155200000,3.72000,
,,,-0.02154800000,3.56000,
,,,-0.02154400000,3.68000,
,,,-0.02153999844,3.68000,
,,,-0.02153600000,3.68000,
,,,-0.02153199844,3.72000,
,,,-0.02152800000,3.76000,
,,,-0.02152399844,3.64000,
,,,-0.02152000000,3.68000,
,,,-0.02151600156,3.68000,
,,,-0.02151200000,3.68000,
,,,-0.02150800156,3.72000,
,,,-0.02150400000,3.68000,
,,,-0.02150000000,3.68000,
,,,-0.02149600000,3.68000,
,,,-0.02149200000,3.64000,
,,,-0.02148800000,3.72000,
,,,-0.02148400000,3.72000,
,,,-0.02148000000,3.72000,
,,,-0.02147600000,3.72000,
,,,-0.02147200000,3.68000,
,,,-0.02146800000,3.68000,
,,,-0.02146400000,3.68000,
,,,-0.02146000000,3.64000,
,,,-0.02145600000,3.68000,
,,,-0.02145200000,3.72000,
,,,-0.02144800000,3.64000,
,,,-0.02144400000,3.72000,
,,,-0.02144000000,3.72000,
,,,-0.02143600000,3.68000,
,,,-0.02143200000,3.68000,
,,,-0.02142800000,3.68000,
,,,-0.02142400000,3.68000,
,,,-0.02142000000,3.68000,
,,,-0.02141599844,3.72000,
,,,-0.02141200000,3.68000,
,,,-0.02140799844,3.72000,
,,,-0.02140400000,3.72000,
,,,-0.02139999844,3.56000,
,,,-0.02139600000,3.68000,
,,,-0.02139200156,3.68000,
,,,-0.02138800000,3.68000,
,,,-0.02138400000,3.72000,
,,,-0.02138000000,3.68000,
,,,-0.02137600000,3.68000,
,,,-0.02137200000,3.68000,
,,,-0.02136800000,3.72000,
,,,-0.02136400000,3.68000,
,,,-0.02136000000,3.72000,
,,,-0.02135600000,3.64000,
,,,-0.02135200000,3.68000,
,,,-0.02134800000,3.68000,
,,,-0.02134400000,3.72000,
,,,-0.02134000000,3.68000,
,,,-0.02133600000,3.72000,
,,,-0.02133200000,3.68000,
,,,-0.02132800000,3.68000,
,,,-0.02132400000,3.68000,
,,,-0.02132000000,3.72000,
,,,-0.02131600000,3.72000,
,,,-0.02131200000,3.68000,
,,,-0.02130800000,3.68000,
,,,-0.02130400000,3.68000,
,,,-0.02129999844,3.68000,
,,,-0.02129600000,3.68000,
,,,-0.02129199844,3.68000,
,,,-0.02128800000,3.68000,
,,,-0.02128399844,3.68000,
,,,-0.02128000000,3.68000,
,,,-0.02127599844,3.68000,
,,,-0.02127200000,3.56000,
,,,-0.02126800156,3.68000,
,,,-0.02126400000,3.68000,
,,,-0.02126000000,3.72000,
,,,-0.02125600000,3.68000,
,,,-0.02125200000,3.76000,
,,,-0.02124800000,3.68000,
,,,-0.02124400000,3.68000,
,,,-0.02124000000,3.68000,
,,,-0.02123600000,3.72000,
,,,-0.02123200000,3.72000,
,,,-0.02122800000,3.68000,
,,,-0.02122400000,3.68000,
,,,-0.02122000000,3.68000,
,,,-0.02121600000,3.72000,
,,,-0.02121200000,3.68000,
,,,-0.02120800000,3.68000,
,,,-0.02120400000,3.68000,
,,,-0.02120000000,3.68000,
,,,-0.02119600000,3.64000,
,,,-0.02119200000,3.68000,
,,,-0.02118800000,3.68000,
,,,-0.02118400000,3.68000,
,,,-0.02118000000,3.68000,
,,,-0.02117599844,3.72000,
,,,-0.02117200000,3.68000,
,,,-0.02116799844,3.72000,
,,,-0.02116400000,3.72000,
,,,-0.02115999844,3.68000,
,,,-0.02115600000,3.68000,
,,,-0.02115200156,3.68000,
,,,-0.02114800000,3.68000,
,,,-0.02114400156,3.72000,
,,,-0.02114000000,3.72000,
,,,-0.02113600000,3.68000,
,,,-0.02113200000,3.64000,
,,,-0.02112800000,3.68000,
,,,-0.02112400000,3.72000,
,,,-0.02112000000,3.68000,
,,,-0.02111600000,3.68000,
,,,-0.02111200000,3.72000,
,,,-0.02110800000,3.72000,
,,,-0.02110400000,3.72000,
,,,-0.02110000000,3.68000,
,,,-0.02109600000,3.72000,
,,,-0.02109200000,3.68000,
,,,-0.02108800000,3.68000,
,,,-0.02108400000,3.64000,
,,,-0.02108000000,3.68000,
,,,-0.02107600000,3.68000,
,,,-0.02107200000,3.68000,
,,,-0.02106800000,3.72000,
,,,-0.02106400000,3.72000,
,,,-0.02106000000,3.68000,
,,,-0.02105600000,3.68000,
,,,-0.02105199844,3.72000,
,,,-0.02104800000,3.68000,
,,,-0.02104399844,3.68000,
,,,-0.02104000000,3.72000,
,,,-0.02103599844,3.68000,
,,,-0.02103200000,3.68000,
,,,-0.02102800156,3.72000,
,,,-0.02102400000,3.72000,
,,,-0.02102000156,3.68000,
,,,-0.02101600000,3.64000,
,,,-0.02101200000,3.68000,
,,,-0.02100800000,3.68000,
,,,-0.02100400000,3.64000,
,,,-0.02100000000,3.72000,
,,,-0.02099600000,3.76000,
,,,-0.02099200000,3.68000,
,,,-0.02098800000,3.68000,
,,,-0.02098400000,3.64000,
,,,-0.02098000000,3.64000,
,,,-0.02097600000,3.64000,
,,,-0.02097200000,3.68000,
,,,-0.02096800000,3.72000,
,,,-0.02096400000,3.68000,
,,,-0.02096000000,3.68000,
,,,-0.02095600000,3.72000,
,,,-0.02095200000,3.72000,
,,,-0.02094800000,3.68000,
,,,-0.02094400000,3.72000,
,,,-0.02094000000,3.72000,
,,,-0.02093600000,3.64000,
,,,-0.02093200000,3.68000,
,,,-0.02092799844,3.68000,
,,,-0.02092400000,3.68000,
,,,-0.02091999844,3.68000,
,,,-0.02091600000,3.68000,
,,,-0.02091199844,3.68000,
,,,-0.02090800000,3.68000,
,,,-0.02090400156,3.68000,
,,,-0.02090000000,3.72000,
,,,-0.02089600156,3.68000,
,,,-0.02089200000,3.72000,
,,,-0.02088800000,3.72000,
,,,-0.02088400000,3.68000,
,,,-0.02088000000,3.68000,
,,,-0.02087600000,3.72000,
,,,-0.02087200000,3.68000,
,,,-0.02086800000,3.56000,
,,,-0.02086400000,3.68000,
,,,-0.02086000000,3.68000,
,,,-0.02085600000,3.68000,
,,,-0.02085200000,3.68000,
,,,-0.02084800000,3.72000,
,,,-0.02084400000,3.64000,
,,,-0.02084000000,3.68000,
,,,-0.02083600000,3.68000,
,,,-0.02083200000,3.68000,
,,,-0.02082800000,3.68000,
,,,-0.02082400000,3.68000,
,,,-0.02082000000,3.72000,
,,,-0.02081600000,3.72000,
,,,-0.02081199844,3.68000,
,,,-0.02080800000,3.76000,
,,,-0.02080399844,3.72000,
,,,-0.02080000000,3.68000,
,,,-0.02079599844,3.64000,
,,,-0.02079200000,3.68000,
,,,-0.02078799844,3.68000,
,,,-0.02078400000,3.68000,
,,,-0.02078000156,3.68000,
,,,-0.02077600000,3.72000,
,,,-0.02077200000,3.68000,
,,,-0.02076800000,3.68000,
,,,-0.02076400000,3.68000,
,,,-0.02076000000,3.68000,
,,,-0.02075600000,3.68000,
,,,-0.02075200000,3.68000,
,,,-0.02074800000,3.68000,
,,,-0.02074400000,3.68000,
,,,-0.02074000000,3.72000,
,,,-0.02073600000,3.72000,
,,,-0.02073200000,3.68000,
,,,-0.02072800000,3.72000,
,,,-0.02072400000,3.72000,
,,,-0.02072000000,3.64000,
,,,-0.02071600000,3.68000,
,,,-0.02071200000,3.64000,
,,,-0.02070800000,3.68000,
,,,-0.02070400000,3.68000,
,,,-0.02070000000,3.72000,
,,,-0.02069600000,3.68000,
,,,-0.02069200000,3.68000,
,,,-0.02068799844,3.72000,
,,,-0.02068400000,3.72000,
,,,-0.02067999844,3.64000,
,,,-0.02067600000,3.68000,
,,,-0.02067199844,3.68000,
,,,-0.02066800000,3.68000,
,,,-0.02066399844,3.68000,
,,,-0.02066000000,3.68000,
,,,-0.02065600156,3.68000,
,,,-0.02065200000,3.72000,
,,,-0.02064800000,3.68000,
,,,-0.02064400000,3.68000,
,,,-0.02064000000,3.72000,
,,,-0.02063600000,3.72000,
,,,-0.02063200000,3.68000,
,,,-0.02062800000,3.68000,
,,,-0.02062400000,3.68000,
,,,-0.02062000000,3.68000,
,,,-0.02061600000,3.68000,
,,,-0.02061200000,3.68000,
,,,-0.02060800000,3.68000,
,,,-0.02060400000,3.68000,
,,,-0.02060000000,3.72000,
,,,-0.02059600000,3.72000,
,,,-0.02059200000,3.64000,
,,,-0.02058800000,3.68000,
,,,-0.02058400000,3.72000,
,,,-0.02058000000,3.68000,
,,,-0.02057600000,3.68000,
,,,-0.02057200000,3.80000,
,,,-0.02056800000,3.72000,
,,,-0.02056399844,3.68000,
,,,-0.02056000000,3.68000,
,,,-0.02055599844,3.68000,
,,,-0.02055200000,3.68000,
,,,-0.02054799844,3.68000,
,,,-0.02054400000,3.68000,
,,,-0.02054000156,3.64000,
,,,-0.02053600000,3.68000,
,,,-0.02053200156,3.72000,
,,,-0.02052800000,3.68000,
,,,-0.02052400000,3.68000,
,,,-0.02052000000,3.68000,
,,,-0.02051600000,3.72000,
,,,-0.02051200000,3.64000,
,,,-0.02050800000,3.72000,
,,,-0.02050400000,3.68000,
,,,-0.02050000000,3.72000,
,,,-0.02049600000,3.72000,
,,,-0.02049200000,3.68000,
,,,-0.02048800000,3.68000,
,,,-0.02048400000,3.68000,
,,,-0.02048000000,3.64000,
,,,-0.02047600000,3.68000,
,,,-0.02047200000,3.68000,
,,,-0.02046800000,3.68000,
,,,-0.02046400000,3.72000,
,,,-0.02046000000,3.68000,
,,,-0.02045600000,3.68000,
,,,-0.02045200000,3.68000,
,,,-0.02044800000,3.68000,
,,,-0.02044400000,3.72000,
,,,-0.02043999844,3.68000,
,,,-0.02043600000,3.68000,
,,,-0.02043199844,3.68000,
,,,-0.02042800000,3.68000,
,,,-0.02042399844,3.68000,
,,,-0.02042000000,3.72000,
,,,-0.02041600156,3.68000,
,,,-0.02041200000,3.68000,
,,,-0.02040800156,3.64000,
,,,-0.02040400000,3.64000,
,,,-0.02040000000,3.68000,
,,,-0.02039600000,3.64000,
,,,-0.02039200000,3.68000,
,,,-0.02038800000,3.68000,
,,,-0.02038400000,3.72000,
,,,-0.02038000000,3.72000,
,,,-0.02037600000,3.68000,
,,,-0.02037200000,3.68000,
,,,-0.02036800000,3.68000,
,,,-0.02036400000,3.72000,
,,,-0.02036000000,3.64000,
,,,-0.02035600000,3.68000,
,,,-0.02035200000,3.68000,
,,,-0.02034800000,3.68000,
,,,-0.02034400000,3.68000,
,,,-0.02034000000,3.68000,
,,,-0.02033600000,3.72000,
,,,-0.02033200000,3.68000,
,,,-0.02032800000,3.68000,
,,,-0.02032400000,3.68000,
,,,-0.02032000000,3.64000,
,,,-0.02031599844,3.80000,
,,,-0.02031200000,3.64000,
,,,-0.02030799844,3.72000,
,,,-0.02030400000,3.68000,
,,,-0.02029999844,3.68000,
,,,-0.02029600000,3.64000,
,,,-0.02029200156,3.68000,
,,,-0.02028800000,3.72000,
,,,-0.02028400156,3.68000,
,,,-0.02028000000,3.72000,
,,,-0.02027600000,3.72000,
,,,-0.02027200000,3.64000,
,,,-0.02026800000,3.68000,
,,,-0.02026400000,3.68000,
,,,-0.02026000000,3.68000,
,,,-0.02025600000,3.64000,
,,,-0.02025200000,3.68000,
,,,-0.02024800000,3.68000,
,,,-0.02024400000,3.68000,
,,,-0.02024000000,3.68000,
,,,-0.02023600000,3.68000,
,,,-0.02023200000,3.68000,
,,,-0.02022800000,3.68000,
,,,-0.02022400000,3.72000,
,,,-0.02022000000,3.68000,
,,,-0.02021600000,3.72000,
,,,-0.02021200000,3.68000,
,,,-0.02020800000,3.72000,
,,,-0.02020400000,3.68000,
,,,-0.02019999844,3.72000,
,,,-0.02019600000,3.68000,
,,,-0.02019199844,3.68000,
,,,-0.02018800000,3.64000,
,,,-0.02018399844,3.68000,
,,,-0.02018000000,3.68000,
,,,-0.02017599844,3.68000,
,,,-0.02017200000,3.68000,
,,,-0.02016800156,3.64000,
,,,-0.02016400000,3.68000,
,,,-0.02016000000,3.68000,
,,,-0.02015600000,3.68000,
,,,-0.02015200000,3.68000,
,,,-0.02014800000,3.72000,
,,,-0.02014400000,3.72000,
,,,-0.02014000000,3.68000,
,,,-0.02013600000,3.68000,
,,,-0.02013200000,3.64000,
,,,-0.02012800000,3.72000,
,,,-0.02012400000,3.68000,
,,,-0.02012000000,3.68000,
,,,-0.02011600000,3.72000,
,,,-0.02011200000,3.68000,
,,,-0.02010800000,3.68000,
,,,-0.02010400000,3.68000,
,,,-0.02010000000,3.68000,
,,,-0.02009600000,3.64000,
,,,-0.02009200000,3.68000,
,,,-0.02008800000,3.68000,
,,,-0.02008400000,3.68000,
,,,-0.02008000000,3.68000,
,,,-0.02007599844,3.72000,
,,,-0.02007200000,3.68000,
,,,-0.02006799844,3.68000,
,,,-0.02006400000,3.68000,
,,,-0.02005999844,3.72000,
,,,-0.02005600000,3.68000,
,,,-0.02005200156,3.68000,
,,,-0.02004800000,3.68000,
,,,-0.02004400156,3.68000,
,,,-0.02004000000,3.64000,
,,,-0.02003600000,3.64000,
,,,-0.02003200000,3.72000,
,,,-0.02002800000,3.68000,
,,,-0.02002400000,3.68000,
,,,-0.02002000000,3.68000,
,,,-0.02001600000,3.68000,
,,,-0.02001200000,3.68000,
,,,-0.02000800000,3.68000,
,,,-0.02000400000,3.68000,
,,,-0.02000000000,3.72000,
,,,-0.01999600000,3.68000,
,,,-0.01999200000,3.72000,
,,,-0.01998800000,3.72000,
,,,-0.01998400000,3.68000,
,,,-0.01998000000,3.64000,
,,,-0.01997600000,3.72000,
,,,-0.01997200000,3.68000,
,,,-0.01996800000,3.64000,
,,,-0.01996400000,3.68000,
,,,-0.01996000000,3.72000,
,,,-0.01995600000,3.64000,
,,,-0.01995199844,3.68000,
,,,-0.01994800000,3.68000,
,,,-0.01994399844,3.68000,
,,,-0.01994000000,3.64000,
,,,-0.01993599844,3.72000,
,,,-0.01993200000,3.68000,
,,,-0.01992800156,3.68000,
,,,-0.01992400000,3.72000,
,,,-0.01992000156,3.68000,
,,,-0.01991600000,3.68000,
,,,-0.01991200000,3.60000,
,,,-0.01990800000,3.68000,
,,,-0.01990400000,3.68000,
,,,-0.01990000000,3.68000,
,,,-0.01989600000,3.68000,
,,,-0.01989200000,3.84000,
,,,-0.01988800000,3.64000,
,,,-0.01988400000,3.68000,
,,,-0.01988000000,3.68000,
,,,-0.01987600000,3.68000,
,,,-0.01987200000,3.64000,
,,,-0.01986800000,3.68000,
,,,-0.01986400000,3.68000,
,,,-0.01986000000,3.68000,
,,,-0.01985600000,3.68000,
,,,-0.01985200000,3.72000,
,,,-0.01984800000,3.68000,
,,,-0.01984400000,3.68000,
,,,-0.01984000000,3.72000,
,,,-0.01983600000,3.68000,
,,,-0.01983200000,3.64000,
,,,-0.01982799844,3.72000,
,,,-0.01982400000,3.72000,
,,,-0.01981999844,3.68000,
,,,-0.01981600000,3.68000,
,,,-0.01981199844,3.72000,
,,,-0.01980800000,3.72000,
,,,-0.01980400156,3.64000,
,,,-0.01980000000,3.72000,
,,,-0.01979600156,3.72000,
,,,-0.01979200000,3.64000,
,,,-0.01978800000,3.68000,
,,,-0.01978400000,3.72000,
,,,-0.01978000000,3.68000,
,,,-0.01977600000,3.72000,
,,,-0.01977200000,3.68000,
,,,-0.01976800000,3.68000,
,,,-0.01976400000,3.76000,
,,,-0.01976000000,3.68000,
,,,-0.01975600000,3.72000,
,,,-0.01975200000,3.68000,
,,,-0.01974800000,3.64000,
,,,-0.01974400000,3.72000,
,,,-0.01974000000,3.68000,
,,,-0.01973600000,3.64000,
,,,-0.01973200000,3.68000,
,,,-0.01972800000,3.68000,
,,,-0.01972400000,3.64000,
,,,-0.01972000000,3.64000,
,,,-0.01971600000,3.68000,
,,,-0.01971200000,3.68000,
,,,-0.01970800000,3.68000,
,,,-0.01970399844,3.72000,
,,,-0.01970000000,3.68000,
,,,-0.01969599844,3.68000,
,,,-0.01969200000,3.68000,
,,,-0.01968799844,3.68000,
,,,-0.01968400000,3.72000,
,,,-0.01968000156,3.68000,
,,,-0.01967600000,3.72000,
,,,-0.01967200000,3.68000,
,,,-0.01966800000,3.68000,
,,,-0.01966400000,3.68000,
,,,-0.01966000000,3.72000,
,,,-0.01965600000,3.68000,
,,,-0.01965200000,3.68000,
,,,-0.01964800000,3.68000,
,,,-0.01964400000,3.68000,
,,,-0.01964000000,3.68000,
,,,-0.01963600000,3.80000,
,,,-0.01963200000,3.68000,
,,,-0.01962800000,3.64000,
,,,-0.01962400000,3.68000,
,,,-0.01962000000,3.72000,
,,,-0.01961600000,3.60000,
,,,-0.01961200000,3.72000,
,,,-0.01960800000,3.68000,
,,,-0.01960400000,3.72000,
,,,-0.01960000000,3.68000,
,,,-0.01959600000,3.68000,
,,,-0.01959200000,3.68000,
,,,-0.01958799844,3.68000,
,,,-0.01958400000,3.64000,
